{
  "Stocks": [
    {
      "country": "US", 
      "index": "SP500", 
      "industry": "Technology", 
      "name": "Apple", 
      "reddit_count": 1731, 
      "sector": "Information Technology", 
      "sym": "AAPL"
    }, 
    {
      "country": "USA", 
      "index": "NYSE", 
      "industry": "Drug Manufacturers-General", 
      "name": "AbbVie Inc", 
      "reddit_count": 0, 
      "sector": "Healthcare", 
      "sym": "ABBV"
    }, 
    {
      "country": "USA", 
      "index": "NYSE", 
      "industry": "Medical Devices", 
      "name": "Abbott Laboratories", 
      "reddit_count": 0, 
      "sector": "Healthcare", 
      "sym": "ABT"
    }, 
    {
      "country": "USA", 
      "index": "NASDAQ", 
      "industry": "Software-Infrastructure", 
      "name": "Adobe Inc", 
      "reddit_count": 0, 
      "sector": "Technology", 
      "sym": "ADBE"
    }, 
    {
      "country": "USA", 
      "index": "NYSE", 
      "industry": "Rental & Leasing Services", 
      "name": "Air Lease Corporation", 
      "reddit_count": 0, 
      "sector": "Industrials", 
      "sym": "AL"
    }, 
    {
      "country": "USA", 
      "index": "NYSE", 
      "industry": "Airlines", 
      "name": "Alaska Air Group, Inc", 
      "reddit_count": 0, 
      "sector": "Industrials", 
      "sym": "ALK"
    }, 
    {
      "country": "USA", 
      "index": "NYSE", 
      "industry": "Insurance-Property & Casualty", 
      "name": "The Allstate Corporation", 
      "reddit_count": 0, 
      "sector": "Financial Services", 
      "sym": "ALL"
    }, 
    {
      "country": "USA", 
      "index": "NASDAQ", 
      "industry": "Semiconductors", 
      "name": "Advanced Micro Devices, Inc", 
      "reddit_count": 922, 
      "sector": "Technology", 
      "sym": "AMD"
    }, 
    {
      "country": "USA", 
      "index": "NYSE", 
      "industry": "REIT-Specialty", 
      "name": "American Tower Corporation (REIT)", 
      "reddit_count": 0, 
      "sector": "Real Estate", 
      "sym": "AMT"
    }, 
    {
      "country": "USA", 
      "index": "NASDAQ", 
      "industry": "Internet Retail", 
      "name": "Amazon.com, Inc", 
      "reddit_count": 97, 
      "sector": "Consumer Cyclical", 
      "sym": "AMZN"
    }, 
    {
      "country": "USA", 
      "index": "NYSE", 
      "industry": "Electronics & Computer Distribution", 
      "name": "Arrow Electronics, Inc", 
      "reddit_count": 0, 
      "sector": "Technology", 
      "sym": "ARW"
    }, 
    {
      "country": "USA", 
      "index": "NASDAQ", 
      "industry": "Electronic Gaming & Multimedia", 
      "name": "Activision Blizzard, Inc", 
      "reddit_count": 24, 
      "sector": "Communication Services", 
      "sym": "ATVI"
    }, 
    {
      "country": "USA", 
      "index": "NASDAQ", 
      "industry": "Semiconductors", 
      "name": "Broadcom Inc", 
      "reddit_count": 0, 
      "sector": "Technology", 
      "sym": "AVGO"
    }, 
    {
      "country": "USA", 
      "index": "NYSE", 
      "industry": "Credit Services", 
      "name": "American Express Company", 
      "reddit_count": 0, 
      "sector": "Financial Services", 
      "sym": "AXP"
    }, 
    {
      "country": "USA", 
      "index": "NASDAQ", 
      "industry": "Software-Application", 
      "name": "Aspen Technology, Inc", 
      "reddit_count": 0, 
      "sector": "Technology", 
      "sym": "AZPN"
    }, 
    {
      "country": "USA", 
      "index": "NYSE", 
      "industry": "Aerospace & Defense", 
      "name": "The Boeing Company", 
      "reddit_count": 27, 
      "sector": "Industrials", 
      "sym": "BA"
    }, 
    {
      "country": "USA", 
      "index": "NYSE", 
      "industry": "Banks-Diversified", 
      "name": "Bank of America Corporation", 
      "reddit_count": 0, 
      "sector": "Financial Services", 
      "sym": "BAC"
    }, 
    {
      "country": "USA", 
      "index": "NYSE", 
      "industry": "Software-Application", 
      "name": "Bill.com Holdings, Inc", 
      "reddit_count": 129, 
      "sector": "Technology", 
      "sym": "BILL"
    }, 
    {
      "country": "USA", 
      "index": "NASDAQ", 
      "industry": "Travel Services", 
      "name": "Booking Holdings Inc", 
      "reddit_count": 0, 
      "sector": "Consumer Cyclical", 
      "sym": "BKNG"
    }, 
    {
      "country": "USA", 
      "index": "NYSE", 
      "industry": "Oil & Gas Integrated", 
      "name": "BP p.l.c", 
      "reddit_count": 0, 
      "sector": "Energy", 
      "sym": "BP"
    }, 
    {
      "country": "USA", 
      "index": "NYSE", 
      "industry": "Medical Devices", 
      "name": "Boston Scientific Corporation", 
      "reddit_count": 0, 
      "sector": "Healthcare", 
      "sym": "BSX"
    }, 
    {
      "country": "USA", 
      "index": "NYSE", 
      "industry": "Footwear & Accessories", 
      "name": "Caleres, Inc", 
      "reddit_count": 0, 
      "sector": "Consumer Cyclical", 
      "sym": "CAL"
    }, 
    {
      "country": "USA", 
      "index": "NYSE", 
      "industry": "Building Products & Equipment", 
      "name": "Carrier Global Corporation", 
      "reddit_count": 0, 
      "sector": "Industrials", 
      "sym": "CARR"
    }, 
    {
      "country": "USA", 
      "index": "NYSE", 
      "industry": "Farm & Heavy Construction Machinery", 
      "name": "Caterpillar Inc", 
      "reddit_count": 0, 
      "sector": "Industrials", 
      "sym": "CAT"
    }, 
    {
      "country": "USA", 
      "index": "NYSE", 
      "industry": "REIT-Specialty", 
      "name": "Crown Castle International Corp. (REIT)", 
      "reddit_count": 0, 
      "sector": "Real Estate", 
      "sym": "CCI"
    }, 
    {
      "country": "USA", 
      "index": "NYSE", 
      "industry": "Lodging", 
      "name": "Choice Hotels International, Inc", 
      "reddit_count": 0, 
      "sector": "Consumer Cyclical", 
      "sym": "CHH"
    }, 
    {
      "country": "USA", 
      "index": "NASDAQ", 
      "industry": "Entertainment", 
      "name": "Charter Communications, Inc", 
      "reddit_count": 0, 
      "sector": "Communication Services", 
      "sym": "CHTR"
    }, 
    {
      "country": "USA", 
      "index": "NYSE", 
      "industry": "Restaurants", 
      "name": "Chipotle Mexican Grill, Inc", 
      "reddit_count": 0, 
      "sector": "Consumer Cyclical", 
      "sym": "CMG"
    }, 
    {
      "country": "USA", 
      "index": "NYSE", 
      "industry": "Credit Services", 
      "name": "Capital One Financial Corporation", 
      "reddit_count": 0, 
      "sector": "Financial Services", 
      "sym": "COF"
    }, 
    {
      "country": "USA", 
      "index": "NYSE", 
      "industry": "Oil & Gas E&P", 
      "name": "ConocoPhillips", 
      "reddit_count": 0, 
      "sector": "Energy", 
      "sym": "COP"
    }, 
    {
      "country": "USA", 
      "index": "NASDAQ", 
      "industry": "Discount Stores", 
      "name": "Costco Wholesale Corporation", 
      "reddit_count": 0, 
      "sector": "Consumer Defensive", 
      "sym": "COST"
    }, 
    {
      "country": "USA", 
      "index": "NYSE", 
      "industry": "Software-Application", 
      "name": "salesforce.com, inc", 
      "reddit_count": 11, 
      "sector": "Technology", 
      "sym": "CRM"
    }, 
    {
      "country": "USA", 
      "index": "NASDAQ", 
      "industry": "Computer Hardware", 
      "name": "Corsair Gaming, Inc", 
      "reddit_count": 359, 
      "sector": "Technology", 
      "sym": "CRSR"
    }, 
    {
      "country": "USA", 
      "index": "NYSE", 
      "industry": "Oil & Gas Integrated", 
      "name": "Chevron Corporation", 
      "reddit_count": 0, 
      "sector": "Energy", 
      "sym": "CVX"
    }, 
    {
      "country": "USA", 
      "index": "NYSE", 
      "industry": "Airlines", 
      "name": "Delta Air Lines, Inc", 
      "reddit_count": 0, 
      "sector": "Industrials", 
      "sym": "DAL"
    }, 
    {
      "country": "USA", 
      "index": "NYSE", 
      "industry": "Chemicals", 
      "name": "DuPont de Nemours, Inc", 
      "reddit_count": 0, 
      "sector": "Basic Materials", 
      "sym": "DD"
    }, 
    {
      "country": "USA", 
      "index": "NYSE", 
      "industry": "Financial Conglomerates", 
      "name": "Deere & Company", 
      "reddit_count": 0, 
      "sector": "Financial Services", 
      "sym": "DE"
    }, 
    {
      "country": "USA", 
      "index": "NYSE", 
      "industry": "Entertainment", 
      "name": "The Walt Disney Company", 
      "reddit_count": 64, 
      "sector": "Communication Services", 
      "sym": "DIS"
    }, 
    {
      "country": "USA", 
      "index": "NASDAQ", 
      "industry": "Gambling", 
      "name": "DraftKings Inc", 
      "reddit_count": 99, 
      "sector": "Consumer Cyclical", 
      "sym": "DKNG"
    }, 
    {
      "country": "USA", 
      "index": "NYSE", 
      "industry": "Chemicals", 
      "name": "Dow Inc", 
      "reddit_count": 64, 
      "sector": "Basic Materials", 
      "sym": "DOW"
    }, 
    {
      "country": "USA", 
      "index": "NYSE", 
      "industry": "Information Technology Services", 
      "name": "DXC Technology Company", 
      "reddit_count": 0, 
      "sector": "Technology", 
      "sym": "DXC"
    }, 
    {
      "country": "USA", 
      "index": "NYSE", 
      "industry": "Electrical Equipment & Parts", 
      "name": "GrafTech International Ltd", 
      "reddit_count": 0, 
      "sector": "Industrials", 
      "sym": "EAF"
    }, 
    {
      "country": "USA", 
      "index": "NYSE", 
      "industry": "Specialty Chemicals", 
      "name": "Ecolab Inc", 
      "reddit_count": 0, 
      "sector": "Basic Materials", 
      "sym": "ECL"
    }, 
    {
      "country": "USA", 
      "index": "NYSE", 
      "industry": "Consulting Services", 
      "name": "Equifax Inc", 
      "reddit_count": 0, 
      "sector": "Industrials", 
      "sym": "EFX"
    }, 
    {
      "country": "USA", 
      "index": "NYSE", 
      "industry": "Household & Personal Products", 
      "name": "None", 
      "reddit_count": 0, 
      "sector": "Consumer Defensive", 
      "sym": "EL"
    }, 
    {
      "country": "USA", 
      "index": "NASDAQ", 
      "industry": "Solar", 
      "name": "Enphase Energy, Inc", 
      "reddit_count": 0, 
      "sector": "Technology", 
      "sym": "ENPH"
    }, 
    {
      "country": "USA", 
      "index": "NASDAQ", 
      "industry": "REIT-Specialty", 
      "name": "Equinix, Inc. (REIT)", 
      "reddit_count": 0, 
      "sector": "Real Estate", 
      "sym": "EQIX"
    }, 
    {
      "country": "USA", 
      "index": "NASDAQ", 
      "industry": "Travel Services", 
      "name": "Expedia Group, Inc", 
      "reddit_count": 0, 
      "sector": "Consumer Cyclical", 
      "sym": "EXPE"
    }, 
    {
      "country": "USA", 
      "index": "NYSE", 
      "industry": "Auto Manufacturers", 
      "name": "Ford Motor Company", 
      "reddit_count": 0, 
      "sector": "Consumer Cyclical", 
      "sym": "F"
    }, 
    {
      "country": "USA", 
      "index": "NASDAQ", 
      "industry": "Internet Content & Information", 
      "name": "Facebook, Inc", 
      "reddit_count": 20, 
      "sector": "Communication Services", 
      "sym": "FB"
    }, 
    {
      "country": "USA", 
      "index": "NYSE", 
      "industry": "Copper", 
      "name": "Freeport-McMoRan Inc", 
      "reddit_count": 0, 
      "sector": "Basic Materials", 
      "sym": "FCX"
    }, 
    {
      "country": "USA", 
      "index": "NYSE", 
      "industry": "Specialty Industrial Machinery", 
      "name": "General Electric Company", 
      "reddit_count": 0, 
      "sector": "Industrials", 
      "sym": "GE"
    }, 
    {
      "country": "USA", 
      "index": "NYSE", 
      "industry": "Specialty Retail", 
      "name": "GameStop Corp", 
      "reddit_count": 20663, 
      "sector": "Consumer Cyclical", 
      "sym": "GME"
    }, 
    {
      "country": "USA", 
      "index": "NYSE", 
      "industry": "Specialty Industrial Machinery", 
      "name": "Generac Holdings Inc", 
      "reddit_count": 0, 
      "sector": "Industrials", 
      "sym": "GNRC"
    }, 
    {
      "country": "USA", 
      "index": "NASDAQ", 
      "industry": "Internet Content & Information", 
      "name": "Alphabet Inc", 
      "reddit_count": 0, 
      "sector": "Communication Services", 
      "sym": "GOOGL"
    }, 
    {
      "country": "USA", 
      "index": "NYSE", 
      "industry": "Capital Markets", 
      "name": "The Goldman Sachs Group, Inc", 
      "reddit_count": 0, 
      "sector": "Financial Services", 
      "sym": "GS"
    }, 
    {
      "country": "USA", 
      "index": "NYSE", 
      "industry": "Oil & Gas Equipment & Services", 
      "name": "Halliburton Company", 
      "reddit_count": 0, 
      "sector": "Energy", 
      "sym": "HAL"
    }, 
    {
      "country": "USA", 
      "index": "NYSE", 
      "industry": "Medical Care Facilities", 
      "name": "HCA Healthcare, Inc", 
      "reddit_count": 0, 
      "sector": "Healthcare", 
      "sym": "HCA"
    }, 
    {
      "country": "USA", 
      "index": "NYSE", 
      "industry": "Home Improvement Retail", 
      "name": "The Home Depot, Inc", 
      "reddit_count": 0, 
      "sector": "Consumer Cyclical", 
      "sym": "HD"
    }, 
    {
      "country": "USA", 
      "index": "NYSE", 
      "industry": "Aerospace & Defense", 
      "name": "Huntington Ingalls Industries, Inc", 
      "reddit_count": 0, 
      "sector": "Industrials", 
      "sym": "HII"
    }, 
    {
      "country": "USA", 
      "index": "NYSE", 
      "industry": "Lodging", 
      "name": "Hilton Worldwide Holdings Inc", 
      "reddit_count": 0, 
      "sector": "Consumer Cyclical", 
      "sym": "HLT"
    }, 
    {
      "country": "USA", 
      "index": "NYSE", 
      "industry": "Specialty Industrial Machinery", 
      "name": "Honeywell International Inc", 
      "reddit_count": 0, 
      "sector": "Industrials", 
      "sym": "HON"
    }, 
    {
      "country": "USA", 
      "index": "NYSE", 
      "industry": "Computer Hardware", 
      "name": "HP Inc", 
      "reddit_count": 0, 
      "sector": "Technology", 
      "sym": "HPQ"
    }, 
    {
      "country": "USA", 
      "index": "NASDAQ", 
      "industry": "Biotechnology", 
      "name": "Heron Therapeutics, Inc", 
      "reddit_count": 0, 
      "sector": "Healthcare", 
      "sym": "HRTX"
    }, 
    {
      "country": "USA", 
      "index": "NYSE", 
      "industry": "Software-Application", 
      "name": "HubSpot, Inc", 
      "reddit_count": 0, 
      "sector": "Technology", 
      "sym": "HUBS"
    }, 
    {
      "country": "USA", 
      "index": "NYSE", 
      "industry": "Information Technology Services", 
      "name": "International Business Machines Corporation", 
      "reddit_count": 20, 
      "sector": "Technology", 
      "sym": "IBM"
    }, 
    {
      "country": "USA", 
      "index": "NYSE", 
      "industry": "Specialty Chemicals", 
      "name": "International Flavors & Fragrances Inc", 
      "reddit_count": 0, 
      "sector": "Basic Materials", 
      "sym": "IFF"
    }, 
    {
      "country": "USA", 
      "index": "NYSE", 
      "industry": "Lodging", 
      "name": "InterContinental Hotels Group PLC", 
      "reddit_count": 0, 
      "sector": "Consumer Cyclical", 
      "sym": "IHG"
    }, 
    {
      "country": "USA", 
      "index": "NYSE", 
      "industry": "REIT-Industrial", 
      "name": "Innovative Industrial Properties, Inc", 
      "reddit_count": 0, 
      "sector": "Real Estate", 
      "sym": "IIPR"
    }, 
    {
      "country": "USA", 
      "index": "NASDAQ", 
      "industry": "Semiconductors", 
      "name": "Intel Corporation", 
      "reddit_count": 96, 
      "sector": "Technology", 
      "sym": "INTC"
    }, 
    {
      "country": "USA", 
      "index": "NYSE", 
      "industry": "Specialty Industrial Machinery", 
      "name": "Ingersoll Rand Inc", 
      "reddit_count": 0, 
      "sector": "Industrials", 
      "sym": "IR"
    }, 
    {
      "country": "USA", 
      "index": "NYSE", 
      "industry": "Drug Manufacturers-General", 
      "name": "Johnson & Johnson", 
      "reddit_count": 0, 
      "sector": "Healthcare", 
      "sym": "JNJ"
    }, 
    {
      "country": "USA", 
      "index": "NYSE", 
      "industry": "Banks-Diversified", 
      "name": "JPMorgan Chase & Co", 
      "reddit_count": 0, 
      "sector": "Financial Services", 
      "sym": "JPM"
    }, 
    {
      "country": "USA", 
      "index": "NASDAQ", 
      "industry": "Packaged Foods", 
      "name": "The Kraft Heinz Company", 
      "reddit_count": 0, 
      "sector": "Consumer Defensive", 
      "sym": "KHC"
    }, 
    {
      "country": "USA", 
      "index": "NYSE", 
      "industry": "Oil & Gas Midstream", 
      "name": "Kinder Morgan, Inc", 
      "reddit_count": 0, 
      "sector": "Energy", 
      "sym": "KMI"
    }, 
    {
      "country": "USA", 
      "index": "NYSE", 
      "industry": "Beverages-Non-Alcoholic", 
      "name": "The Coca-Cola Company", 
      "reddit_count": 0, 
      "sector": "Consumer Defensive", 
      "sym": "KO"
    }, 
    {
      "country": "USA", 
      "index": "NASDAQ", 
      "industry": "Consumer Electronics", 
      "name": "Koss Corporation", 
      "reddit_count": 0, 
      "sector": "Technology", 
      "sym": "KOSS"
    }, 
    {
      "country": "USA", 
      "index": "NASDAQ", 
      "industry": "Communication Equipment", 
      "name": "Lumentum Holdings Inc", 
      "reddit_count": 0, 
      "sector": "Technology", 
      "sym": "LITE"
    }, 
    {
      "country": "USA", 
      "index": "NYSE", 
      "industry": "Aerospace & Defense", 
      "name": "Lockheed Martin Corporation", 
      "reddit_count": 0, 
      "sector": "Industrials", 
      "sym": "LMT"
    }, 
    {
      "country": "USA", 
      "index": "NYSE", 
      "industry": "Specialty Chemicals", 
      "name": "LyondellBasell Industries N.V", 
      "reddit_count": 0, 
      "sector": "Basic Materials", 
      "sym": "LYB"
    }, 
    {
      "country": "USA", 
      "index": "NYSE", 
      "industry": "Credit Services", 
      "name": "Mastercard Incorporated", 
      "reddit_count": 0, 
      "sector": "Financial Services", 
      "sym": "MA"
    }, 
    {
      "country": "USA", 
      "index": "NYSE", 
      "industry": "Communication Equipment", 
      "name": "Maxar Technologies Inc", 
      "reddit_count": 0, 
      "sector": "Technology", 
      "sym": "MAXR"
    }, 
    {
      "country": "USA", 
      "index": "NYSE", 
      "industry": "Restaurants", 
      "name": "McDonald's Corporation", 
      "reddit_count": 0, 
      "sector": "Consumer Cyclical", 
      "sym": "MCD"
    }, 
    {
      "country": "USA", 
      "index": "NYSE", 
      "industry": "Medical Devices", 
      "name": "Medtronic plc", 
      "reddit_count": 0, 
      "sector": "Healthcare", 
      "sym": "MDT"
    }, 
    {
      "country": "USA", 
      "index": "NYSE", 
      "industry": "Specialty Industrial Machinery", 
      "name": "3M Company", 
      "reddit_count": 0, 
      "sector": "Industrials", 
      "sym": "MMM"
    }, 
    {
      "country": "USA", 
      "index": "NYSE", 
      "industry": "Drug Manufacturers-General", 
      "name": "Merck & Co., Inc", 
      "reddit_count": 0, 
      "sector": "Healthcare", 
      "sym": "MRK"
    }, 
    {
      "country": "USA", 
      "index": "NASDAQ", 
      "industry": "Software-Infrastructure", 
      "name": "Microsoft Corporation", 
      "reddit_count": 15, 
      "sector": "Technology", 
      "sym": "MSFT"
    }, 
    {
      "country": "USA", 
      "index": "NASDAQ", 
      "industry": "Semiconductors", 
      "name": "Micron Technology, Inc", 
      "reddit_count": 0, 
      "sector": "Technology", 
      "sym": "MU"
    }, 
    {
      "country": "USA", 
      "index": "NYSE", 
      "industry": "Utilities-Regulated Electric", 
      "name": "NextEra Energy, Inc", 
      "reddit_count": 0, 
      "sector": "Utilities", 
      "sym": "NEE"
    }, 
    {
      "country": "USA", 
      "index": "NASDAQ", 
      "industry": "Entertainment", 
      "name": "Netflix, Inc", 
      "reddit_count": 104, 
      "sector": "Communication Services", 
      "sym": "NFLX"
    }, 
    {
      "country": "USA", 
      "index": "NYSE", 
      "industry": "Footwear & Accessories", 
      "name": "NIKE, Inc", 
      "reddit_count": 0, 
      "sector": "Consumer Cyclical", 
      "sym": "NKE"
    }, 
    {
      "country": "USA", 
      "index": "NYSE", 
      "industry": "REIT-Retail", 
      "name": "Realty Income Corporation", 
      "reddit_count": 0, 
      "sector": "Real Estate", 
      "sym": "O"
    }, 
    {
      "country": "USA", 
      "index": "NYSE", 
      "industry": "Utilities-Regulated Electric", 
      "name": "PG&E Corporation", 
      "reddit_count": 0, 
      "sector": "Utilities", 
      "sym": "PCG"
    }, 
    {
      "country": "USA", 
      "index": "NASDAQ", 
      "industry": "Resorts & Casinos", 
      "name": "Penn National Gaming, Inc", 
      "reddit_count": 0, 
      "sector": "Consumer Cyclical", 
      "sym": "PENN"
    }, 
    {
      "country": "USA", 
      "index": "NYSE", 
      "industry": "Drug Manufacturers-General", 
      "name": "Pfizer Inc", 
      "reddit_count": 0, 
      "sector": "Healthcare", 
      "sym": "PFE"
    }, 
    {
      "country": "USA", 
      "index": "NYSE", 
      "industry": "Household & Personal Products", 
      "name": "The Procter & Gamble Company", 
      "reddit_count": 0, 
      "sector": "Consumer Defensive", 
      "sym": "PG"
    }, 
    {
      "country": "USA", 
      "index": "NASDAQ", 
      "industry": "Semiconductors", 
      "name": "QUALCOMM Incorporated", 
      "reddit_count": 0, 
      "sector": "Technology", 
      "sym": "QCOM"
    }, 
    {
      "country": "USA", 
      "index": "NASDAQ", 
      "industry": "Internet Retail", 
      "name": "Qurate Retail, Inc", 
      "reddit_count": 0, 
      "sector": "Consumer Cyclical", 
      "sym": "QRTEA"
    }, 
    {
      "country": "USA", 
      "index": "NASDAQ", 
      "industry": "Semiconductors", 
      "name": "Qorvo, Inc", 
      "reddit_count": 0, 
      "sector": "Technology", 
      "sym": "QRVO"
    }, 
    {
      "country": "USA", 
      "index": "NASDAQ", 
      "industry": "Restaurants", 
      "name": "Starbucks Corporation", 
      "reddit_count": 0, 
      "sector": "Consumer Cyclical", 
      "sym": "SBUX"
    }, 
    {
      "country": "USA", 
      "index": "NYSE", 
      "industry": "Specialty Chemicals", 
      "name": "The Sherwin-Williams Company", 
      "reddit_count": 0, 
      "sector": "Basic Materials", 
      "sym": "SHW"
    }, 
    {
      "country": "USA", 
      "index": "NYSE", 
      "industry": "", 
      "name": "Skillz Inc", 
      "reddit_count": 0, 
      "sector": "", 
      "sym": "SKLZ"
    }, 
    {
      "country": "USA", 
      "index": "NYSE", 
      "industry": "Oil & Gas Equipment & Services", 
      "name": "Schlumberger Limited", 
      "reddit_count": 0, 
      "sector": "Energy", 
      "sym": "SLB"
    }, 
    {
      "country": "USA", 
      "index": "NYSE", 
      "industry": "Agricultural Inputs", 
      "name": "The Scotts Miracle-Gro Company", 
      "reddit_count": 0, 
      "sector": "Basic Materials", 
      "sym": "SMG"
    }, 
    {
      "country": "USA", 
      "index": "NASDAQ", 
      "industry": "Drug Manufacturers-Specialty & Generic", 
      "name": "Sundial Growers Inc", 
      "reddit_count": 1964, 
      "sector": "Healthcare", 
      "sym": "SNDL"
    }, 
    {
      "country": "USA", 
      "index": "NYSE", 
      "industry": "Information Technology Services", 
      "name": "SYNNEX Corporation", 
      "reddit_count": 0, 
      "sector": "Technology", 
      "sym": "SNX"
    }, 
    {
      "country": "USA", 
      "index": "NYSE", 
      "industry": "REIT-Retail", 
      "name": "Simon Property Group, Inc", 
      "reddit_count": 0, 
      "sector": "Real Estate", 
      "sym": "SPG"
    }, 
    {
      "country": "USA", 
      "index": "NYSE", 
      "industry": "Software-Infrastructure", 
      "name": "SolarWinds Corporation", 
      "reddit_count": 0, 
      "sector": "Technology", 
      "sym": "SWI"
    }, 
    {
      "country": "USA", 
      "index": "NYSE", 
      "industry": "Telecom Services", 
      "name": "AT&T Inc", 
      "reddit_count": 43, 
      "sector": "Communication Services", 
      "sym": "T"
    }, 
    {
      "country": "USA", 
      "index": "NASDAQ", 
      "industry": "Biotechnology", 
      "name": "Theravance Biopharma, Inc", 
      "reddit_count": 0, 
      "sector": "Healthcare", 
      "sym": "TBPH"
    }, 
    {
      "country": "USA", 
      "index": "NYSE", 
      "industry": "Discount Stores", 
      "name": "Target Corporation", 
      "reddit_count": 0, 
      "sector": "Consumer Defensive", 
      "sym": "TGT"
    }, 
    {
      "country": "USA", 
      "index": "NASDAQ", 
      "industry": "Telecom Services", 
      "name": "T-Mobile US, Inc", 
      "reddit_count": 0, 
      "sector": "Communication Services", 
      "sym": "TMUS"
    }, 
    {
      "country": "USA", 
      "index": "NASDAQ", 
      "industry": "Auto Manufacturers", 
      "name": "Tesla, Inc", 
      "reddit_count": 3590, 
      "sector": "Consumer Cyclical", 
      "sym": "TSLA"
    }, 
    {
      "country": "USA", 
      "index": "NASDAQ", 
      "industry": "Software-Application", 
      "name": "The Trade Desk, Inc", 
      "reddit_count": 0, 
      "sector": "Technology", 
      "sym": "TTD"
    }, 
    {
      "country": "USA", 
      "index": "NYSE", 
      "industry": "Internet Content & Information", 
      "name": "Twitter, Inc", 
      "reddit_count": 0, 
      "sector": "Communication Services", 
      "sym": "TWTR"
    }, 
    {
      "country": "USA", 
      "index": "NASDAQ", 
      "industry": "Rental & Leasing Services", 
      "name": "AMERCO", 
      "reddit_count": 0, 
      "sector": "Industrials", 
      "sym": "UHAL"
    }, 
    {
      "country": "USA", 
      "index": "NYSE", 
      "industry": "Healthcare Plans", 
      "name": "UnitedHealth Group Incorporated", 
      "reddit_count": 0, 
      "sector": "Healthcare", 
      "sym": "UNH"
    }, 
    {
      "country": "USA", 
      "index": "NYSE", 
      "industry": "Integrated Freight & Logistics", 
      "name": "United Parcel Service, Inc", 
      "reddit_count": 0, 
      "sector": "Industrials", 
      "sym": "UPS"
    }, 
    {
      "country": "USA", 
      "index": "NYSE", 
      "industry": "Rental & Leasing Services", 
      "name": "United Rentals, Inc", 
      "reddit_count": 0, 
      "sector": "Industrials", 
      "sym": "URI"
    }, 
    {
      "country": "USA", 
      "index": "NYSE", 
      "industry": "Banks-Regional", 
      "name": "U.S. Bancorp", 
      "reddit_count": 0, 
      "sector": "Financial Services", 
      "sym": "USB"
    }, 
    {
      "country": "USA", 
      "index": "NYSE", 
      "industry": "Credit Services", 
      "name": "Visa Inc", 
      "reddit_count": 23, 
      "sector": "Financial Services", 
      "sym": "V"
    }, 
    {
      "country": "USA", 
      "index": "NYSE", 
      "industry": "Other Industrial Metals & Mining", 
      "name": "Vale S.A", 
      "reddit_count": 49, 
      "sector": "Basic Materials", 
      "sym": "VALE"
    }, 
    {
      "country": "USA", 
      "index": "NYSE", 
      "industry": "Scientific & Technical Instruments", 
      "name": "Vontier Corporation", 
      "reddit_count": 0, 
      "sector": "Technology", 
      "sym": "VNT"
    }, 
    {
      "country": "USA", 
      "index": "NYSE", 
      "industry": "Oil & Gas Refining & Marketing", 
      "name": "Valvoline Inc", 
      "reddit_count": 0, 
      "sector": "Energy", 
      "sym": "VVV"
    }, 
    {
      "country": "USA", 
      "index": "NASDAQ", 
      "industry": "Telecom Services", 
      "name": "Verizon Communications Inc", 
      "reddit_count": 0, 
      "sector": "Communication Services", 
      "sym": "VZ"
    }, 
    {
      "country": "USA", 
      "index": "NYSE", 
      "industry": "Banks-Diversified", 
      "name": "Wells Fargo & Company", 
      "reddit_count": 0, 
      "sector": "Financial Services", 
      "sym": "WFC"
    }, 
    {
      "country": "USA", 
      "index": "NYSE", 
      "industry": "Discount Stores", 
      "name": "Walmart Inc", 
      "reddit_count": 0, 
      "sector": "Consumer Defensive", 
      "sym": "WMT"
    }, 
    {
      "country": "USA", 
      "index": "NASDAQ", 
      "industry": "Biotechnology", 
      "name": "Xeris Pharmaceuticals, Inc", 
      "reddit_count": 0, 
      "sector": "Healthcare", 
      "sym": "XERS"
    }, 
    {
      "country": "USA", 
      "index": "NYSE", 
      "industry": "Oil & Gas Integrated", 
      "name": "Exxon Mobil Corporation", 
      "reddit_count": 0, 
      "sector": "Energy", 
      "sym": "XOM"
    }
  ]
}
